Power Visual - Sandbox
…
# drop month and year column
clus_data <- subset(clus_data, select=-c(month, year, Region)) %>%
  arrange(date)

# pivot wider
clus <- clus_data %>%
  pivot_wider(names_from=date, values_from=kwh_per_acc) 

# omit na
clus <- na.omit(clus)
clus %>% relocate(Description, .before = dwelling_type)

# A tibble: 261 × 56
   Description   dwell…¹ 2018-…² 2018-…³ 2018-…⁴ 2018-…⁵ 2018-…⁶ 2018-…⁷ 2018-…⁸
   <chr>         <chr>     <dbl>   <dbl>   <dbl>   <dbl>   <dbl>   <dbl>   <dbl>
 1 Bishan        1-room…    133.    123.    122     138.    140.    162.    148 
 2 Bukit Merah   1-room…    160.    145.    136.    154.    164.    164.    164.
 3 Bukit Timah   1-room…    123.    130.    137.    140     138.    148.    139.
 4 Geylang       1-room…    170.    147.    152.    168     167.    198.    175 
 5 Kallang       1-room…    134.    131     123.    139.    153     160.    150.
 6 Marine Parade 1-room…    203.    177.    179.    209     185.    261.    220.
 7 Novena        1-room…    165.    176.    140     163.    186.    186.    178.
 8 Outram        1-room…    136.    146.    130.    132.    158.    158.    156.
 9 Queenstown    1-room…    163.    153.    134.    157.    165     171.    179.
10 Rochor        1-room…    219     136.    181     209.    190.    232.    197.
# … with 251 more rows, 47 more variables: `2018-08-01` <dbl>,
#   `2018-09-01` <dbl>, `2018-10-01` <dbl>, `2018-11-01` <dbl>,
#   `2018-12-01` <dbl>, `2019-01-01` <dbl>, `2019-02-01` <dbl>,
#   `2019-03-01` <dbl>, `2019-04-01` <dbl>, `2019-05-01` <dbl>,
#   `2019-06-01` <dbl>, `2019-07-01` <dbl>, `2019-08-01` <dbl>,
#   `2019-09-01` <dbl>, `2019-10-01` <dbl>, `2019-11-01` <dbl>,
#   `2019-12-01` <dbl>, `2020-01-01` <dbl>, `2020-02-01` <dbl>, …
…
